"run params: {'2_nD__rkey': 'bert', '2_nD__rnum_dims': 768, '2_nD__rnormalize': True, '2_nD__rfamily': 'all-MiniLM-L6-v2', '2_nD__rmax_length': 256, '3_2D__rkey': 'umap', '3_2D__rn_neighbors': 10, '3_2D__rmin_dist': 0.1, '3_2D__rmetric': 'euclidean', '3_2D__rinit': 'spectral', '3_2D__rlearning_rate': 1.0, '3_2D__rrepulsion_strength': 1.0, '4_clus__rkey': 'hdbscan', '4_clus__rbase_factor': 3}"
"score params: {'2_nD__smin_score': 30, '2_nD__srecompute': True, '2_nD__ssample_size': None, '2_nD__sn_neighbors': 10, '2_nD__srandom_state': 42, '3_2D__smin_score': 30, '3_2D__srecompute': True, '3_2D__ssample_size': None, '3_2D__sn_neighbors': 10, '3_2D__srandom_state': 42, '4_clus__siter_stab': 2, '4_clus__sremove_stab': [0, 0.01, 0.03, 0.1, 0.25], '4_clus__smetric': 'euclidean', '4_clus__srandom_state': None, '6_pst__sname_list': ['2_nD__neighbors_articles_authors', '3_2D__neighbors_articles_authors', '4_clus__clu_score']}"
VALUE: 0.46389241890856
2_nD__neighbors_articles_authors : 0.55
3_2D__neighbors_articles_authors : 0.53
4_clus__clu_score : 0.32
