,2_nD__neighbors_articles_authors,3_2D__neighbors_articles_authors,scdec
Sébastien Tixeuil,0.6361702127659574,0.6531914893617021,0.0170212765957447
Michèle Sebag,0.4240875912408759,0.4328467153284671,0.0087591240875912
Johanne Cohen,0.3302325581395349,0.2627906976744186,-0.0674418604651163
Albert Cohen,0.5620689655172414,0.5448275862068965,-0.0172413793103448
Wendy E. Mackay,0.2304347826086956,0.2608695652173913,0.0304347826086956
Philippe Caillou,0.641860465116279,0.6209302325581395,-0.0209302325581395
Alain Denise,0.3611111111111111,0.3138888888888889,-0.0472222222222222
Jean-Daniel Fekete,0.5886792452830188,0.5345911949685535,-0.0540880503144654
Emmanuel Pietriga,0.3666666666666666,0.3079365079365079,-0.0587301587301586
Yann Ponty,0.6318181818181818,0.6515151515151515,0.0196969696969696
Marc Schoenauer,0.5546762589928057,0.5251798561151079,-0.0294964028776978
Franck Cappello,0.6268292682926829,0.6195121951219512,-0.0073170731707317
Caroline Appert,0.3391304347826087,0.3695652173913043,0.0304347826086956
Michel Beaudouin-Lafon,0.4222222222222222,0.3518518518518518,-0.0703703703703703
Wendy Mackay,0.351063829787234,0.2638297872340425,-0.0872340425531915
Anne Auger,0.6759493670886076,0.520253164556962,-0.1556962025316456
Evelyne Lutton,0.5405405405405406,0.5135135135135135,-0.027027027027027
Pierre Dragicevic,0.3864197530864197,0.3111111111111111,-0.0753086419753086
Ioana Manolescu,0.6524390243902439,0.6548780487804878,0.0024390243902439
Nikolaus Hansen,0.7432098765432099,0.6987654320987654,-0.0444444444444445
Nicolas Bredeche,0.6441176470588236,0.6470588235294118,0.0029411764705882
Olivier Teytaud,0.5650943396226416,0.5924528301886792,0.0273584905660376
François Goasdoué,0.6018867924528302,0.5660377358490566,-0.0358490566037735
Nathalie Pernelle,0.6058823529411764,0.6235294117647059,0.0176470588235294
Fatiha Saïs,0.6048780487804878,0.6536585365853659,0.048780487804878
Sarah Cohen-Boulakia,0.5696969696969697,0.6878787878787879,0.1181818181818181
Claude Marché,0.5085106382978724,0.5127659574468085,0.0042553191489361
Chantal Reynaud,0.5033333333333333,0.5866666666666667,0.0833333333333333
Olivier Chapuis,0.4134615384615384,0.3615384615384615,-0.0519230769230769
Steven Martin,0.4307692307692308,0.3923076923076923,-0.0384615384615384
Fatiha Zaidi,0.53125,0.53125,0.0
Balázs Kégl,0.3868421052631579,0.3552631578947368,-0.031578947368421
Paola Tubaro,0.6641025641025641,0.7512820512820513,0.0871794871794872
Raymond Ros,0.5264705882352941,0.5852941176470589,0.0588235294117647
Cyril Furtlehner,0.6384615384615384,0.6641025641025641,0.0256410256410256
Anastasia Bezerianos,0.3373134328358209,0.3746268656716418,0.0373134328358208
Sylvie Boldo,0.5742857142857143,0.5285714285714286,-0.0457142857142857
Guillaume Melquiond,0.5424242424242425,0.4303030303030303,-0.1121212121212121
Marc Baboulin,0.6511111111111111,0.6333333333333333,-0.0177777777777777
Dimo Brockhoff,0.7051282051282052,0.6051282051282051,-0.1
Nathann Cohen,0.5341463414634147,0.4512195121951219,-0.0829268292682927
Petra Isenberg,0.5962616822429907,0.5317757009345795,-0.0644859813084112
Tobias Isenberg,0.6752136752136753,0.6264957264957265,-0.0487179487179487
Loïc Paulevé,0.7761904761904762,0.780952380952381,0.0047619047619047
Céline Gicquel,0.8342105263157895,0.7684210526315789,-0.0657894736842106
Isabelle Guyon,0.6606741573033708,0.7067415730337079,0.0460674157303371
Guillaume Charpiat,0.5516129032258065,0.5806451612903226,0.0290322580645161
Lonni Besançon,0.5515151515151515,0.4484848484848485,-0.103030303030303
