,0
Sébastien Tixeuil,0.6361702127659574
Michèle Sebag,0.4240875912408759
Johanne Cohen,0.3302325581395349
Albert Cohen,0.5620689655172414
Wendy E. Mackay,0.23043478260869565
Philippe Caillou,0.641860465116279
Alain Denise,0.3611111111111111
Jean-Daniel Fekete,0.5886792452830188
Emmanuel Pietriga,0.36666666666666664
Yann Ponty,0.6318181818181818
Marc Schoenauer,0.5546762589928057
Franck Cappello,0.6268292682926829
Caroline Appert,0.3391304347826087
Michel Beaudouin-Lafon,0.4222222222222222
Wendy Mackay,0.35106382978723405
Anne Auger,0.6759493670886076
Evelyne Lutton,0.5405405405405406
Pierre Dragicevic,0.38641975308641974
Ioana Manolescu,0.6524390243902439
Nikolaus Hansen,0.7432098765432099
Nicolas Bredeche,0.6441176470588236
Olivier Teytaud,0.5650943396226416
François Goasdoué,0.6018867924528302
Nathalie Pernelle,0.6058823529411764
Fatiha Saïs,0.6048780487804878
Sarah Cohen-Boulakia,0.5696969696969697
Claude Marché,0.5085106382978724
Chantal Reynaud,0.5033333333333333
Olivier Chapuis,0.41346153846153844
Steven Martin,0.4307692307692308
Fatiha Zaidi,0.53125
Balázs Kégl,0.3868421052631579
Paola Tubaro,0.6641025641025641
Raymond Ros,0.5264705882352941
Cyril Furtlehner,0.6384615384615384
Anastasia Bezerianos,0.3373134328358209
Sylvie Boldo,0.5742857142857143
Guillaume Melquiond,0.5424242424242425
Marc Baboulin,0.6511111111111111
Dimo Brockhoff,0.7051282051282052
Nathann Cohen,0.5341463414634147
Petra Isenberg,0.5962616822429907
Tobias Isenberg,0.6752136752136753
Loïc Paulevé,0.7761904761904762
Céline Gicquel,0.8342105263157895
Isabelle Guyon,0.6606741573033708
Guillaume Charpiat,0.5516129032258065
Lonni Besançon,0.5515151515151515
